\relax 
\providecommand\hyper@newdestlabel[2]{}
\@writefile{toc}{\setcounter {tocdepth}{2}}
\@writefile{toc}{\contentsline {chapter}{\numberline {3}\MakeUppercase  {Tools}}{21}{chapter.76}}
\@writefile{toc}{\contentsline {section}{\numberline {3.1}Twitter API}{21}{section.77}}
\@writefile{toc}{\contentsline {subsection}{\numberline {3.1.1}REST APIs}{21}{subsection.78}}
\citation{twitter4j}
\@writefile{toc}{\contentsline {subsection}{\numberline {3.1.2}Streaming API}{22}{subsection.79}}
\@writefile{toc}{\contentsline {section}{\numberline {3.2}Twitter4J Library}{22}{section.80}}
\newlabel{sec:Twitter4J}{{3.2}{22}{Twitter4J Library}{section.80}{}}
\@writefile{brf}{\backcite{twitter4j}{{22}{3.2}{section.80}}}
\@writefile{toc}{\contentsline {section}{\numberline {3.3}Waikato Environment for Knowdlege Analysis - \losa@gloss@i {WEKA}}{22}{section.81}}
\gls@page{losa::GNU}{22}
\citation{discovering_consumer_insight}
\@writefile{toc}{\contentsline {section}{\numberline {3.4}SentiWordNet}{23}{section.82}}
\@writefile{brf}{\backcite{discovering_consumer_insight}{{23}{3.4}{section.82}}}
\@writefile{toc}{\contentsline {section}{\numberline {3.5}CoreNLP}{23}{section.84}}
\@writefile{toc}{\contentsline {section}{\numberline {3.6}Mongo DataBase}{24}{section.86}}
\gls@page{losa::BSON}{24}
\gls@page{default::BSON}{24}
\citation{mongoDB}
\@writefile{lof}{\contentsline {figure}{\numberline {3}{\ignorespaces Model of the MongoDB system}}{25}{figure.91}}
\newlabel{fig:mongomodel}{{3}{25}{Model of the MongoDB system}{figure.91}{}}
\@writefile{lof}{\contentsline {figure}{\numberline {4}{\ignorespaces Example of a MongoDB document}}{25}{figure.93}}
\newlabel{fig:mongoexample}{{4}{25}{Example of a MongoDB document}{figure.93}{}}
\@writefile{brf}{\backcite{mongoDB}{{26}{3.6}{figure.93}}}
\@writefile{toc}{\contentsline {section}{\numberline {3.7}Multi-thread Programming}{26}{section.98}}
\@writefile{toc}{\contentsline {section}{\numberline {3.8}Klout Service}{27}{section.100}}
\@writefile{toc}{\contentsline {subsection}{\numberline {3.8.1}Overview}{27}{subsection.101}}
\citation{ReverseEngineeredKloutScore}
\@writefile{brf}{\backcite{ReverseEngineeredKloutScore}{{28}{3.8.1}{subsection.101}}}
\@writefile{toc}{\contentsline {subsection}{\numberline {3.8.2}Klout API}{28}{subsection.102}}
\@setckpt{branty-chapter3}{
\setcounter{page}{30}
\setcounter{equation}{11}
\setcounter{enumi}{6}
\setcounter{enumii}{0}
\setcounter{enumiii}{0}
\setcounter{enumiv}{0}
\setcounter{footnote}{11}
\setcounter{mpfootnote}{0}
\setcounter{part}{0}
\setcounter{chapter}{3}
\setcounter{section}{8}
\setcounter{subsection}{2}
\setcounter{subsubsection}{0}
\setcounter{paragraph}{0}
\setcounter{subparagraph}{0}
\setcounter{figure}{4}
\setcounter{table}{1}
\setcounter{signatures}{0}
\setcounter{cnt@Lsig}{0}
\setcounter{cnt@Rsig}{0}
\setcounter{parentequation}{0}
\setcounter{LT@tables}{0}
\setcounter{LT@chunks}{0}
\setcounter{subfigure}{0}
\setcounter{lofdepth}{1}
\setcounter{subtable}{0}
\setcounter{lotdepth}{1}
\setcounter{lstnumber}{1}
\setcounter{Item}{12}
\setcounter{Hfootnote}{20}
\setcounter{bookmark@seq@number}{40}
\setcounter{float@type}{8}
\setcounter{r@tfl@t}{0}
\setcounter{defn}{2}
\setcounter{lstlisting}{0}
\setcounter{section@level}{0}
}
