\relax 
\providecommand\hyper@newdestlabel[2]{}
\@writefile{toc}{\setcounter {tocdepth}{0}}
\@writefile{toc}{\contentsline {chapter}{Appendix \numberline {A} --- \scshape  {Samples of Program's code}}{76}{appendix.389}}
\@writefile{toc}{\contentsline {section}{\numberline {A.1}Brand document}{76}{section.390}}
\newlabel{sec:appendixBrand}{{A.1}{76}{Brand document}{section.390}{}}
\newlabel{lst:brand.txt}{{1}{76}{BSON of brands}{lstlisting.391}{}}
\@writefile{lol}{\contentsline {lstlisting}{\numberline {1}BSON of brands}{76}{lstlisting.391}}
\@writefile{toc}{\contentsline {section}{\numberline {A.2}Feature document}{77}{section.433}}
\newlabel{sec:appendixFeature}{{A.2}{77}{Feature document}{section.433}{}}
\newlabel{lst:features.txt}{{2}{77}{BSON of features}{lstlisting.434}{}}
\@writefile{lol}{\contentsline {lstlisting}{\numberline {2}BSON of features}{77}{lstlisting.434}}
\@writefile{toc}{\contentsline {section}{\numberline {A.3}Configurations documents}{78}{section.531}}
\newlabel{sec:appendixConfigurations}{{A.3}{78}{Configurations documents}{section.531}{}}
\newlabel{lst:config.txt}{{3}{78}{BSON of configurations}{lstlisting.532}{}}
\@writefile{lol}{\contentsline {lstlisting}{\numberline {3}BSON of configurations}{78}{lstlisting.532}}
\@setckpt{branty-appendixA}{
\setcounter{page}{80}
\setcounter{equation}{27}
\setcounter{enumi}{2}
\setcounter{enumii}{0}
\setcounter{enumiii}{0}
\setcounter{enumiv}{0}
\setcounter{footnote}{0}
\setcounter{mpfootnote}{0}
\setcounter{part}{0}
\setcounter{chapter}{1}
\setcounter{section}{3}
\setcounter{subsection}{0}
\setcounter{subsubsection}{2}
\setcounter{paragraph}{0}
\setcounter{subparagraph}{0}
\setcounter{figure}{25}
\setcounter{table}{2}
\setcounter{signatures}{0}
\setcounter{cnt@Lsig}{0}
\setcounter{cnt@Rsig}{0}
\setcounter{parentequation}{0}
\setcounter{LT@tables}{0}
\setcounter{LT@chunks}{0}
\setcounter{subfigure}{0}
\setcounter{lofdepth}{1}
\setcounter{subtable}{0}
\setcounter{lotdepth}{1}
\setcounter{lstnumber}{73}
\setcounter{Item}{29}
\setcounter{Hfootnote}{31}
\setcounter{bookmark@seq@number}{77}
\setcounter{float@type}{8}
\setcounter{r@tfl@t}{4}
\setcounter{defn}{19}
\setcounter{lstlisting}{3}
\setcounter{section@level}{0}
}
