\bibstyle{gatech-thesis-losa}
\citation{MCDA}
\citation{WEKA}
\bibdata{branty-losa}
\citation{API}
\citation{SVM}
\citation{TF/IDF}
\citation{MCDA}
\citation{TOPSIS}
\citation{WEKA}
\citation{GNU}
\citation{BSON}
\citation{URL}
\citation{HTML}
\citation{DOM}
\citation{CSS}
\citation{WEKA}
\citation{MVC}
