\relax 
\providecommand\hyper@newdestlabel[2]{}
\@writefile{toc}{\setcounter {tocdepth}{2}}
\@writefile{toc}{\contentsline {chapter}{\numberline {5}\MakeUppercase  {Results}}{71}{chapter.381}}
\@writefile{toc}{\contentsline {section}{\numberline {5.1}Data Set}{71}{section.382}}
\@writefile{toc}{\contentsline {section}{\numberline {5.2}Regression Analysis}{71}{section.383}}
\@setckpt{branty-chapter5}{
\setcounter{page}{72}
\setcounter{equation}{27}
\setcounter{enumi}{2}
\setcounter{enumii}{0}
\setcounter{enumiii}{0}
\setcounter{enumiv}{0}
\setcounter{footnote}{0}
\setcounter{mpfootnote}{0}
\setcounter{part}{0}
\setcounter{chapter}{5}
\setcounter{section}{2}
\setcounter{subsection}{0}
\setcounter{subsubsection}{2}
\setcounter{paragraph}{0}
\setcounter{subparagraph}{0}
\setcounter{figure}{25}
\setcounter{table}{2}
\setcounter{signatures}{0}
\setcounter{cnt@Lsig}{0}
\setcounter{cnt@Rsig}{0}
\setcounter{parentequation}{0}
\setcounter{LT@tables}{0}
\setcounter{LT@chunks}{0}
\setcounter{subfigure}{0}
\setcounter{lofdepth}{1}
\setcounter{subtable}{0}
\setcounter{lotdepth}{1}
\setcounter{lstnumber}{34}
\setcounter{Item}{29}
\setcounter{Hfootnote}{31}
\setcounter{bookmark@seq@number}{68}
\setcounter{float@type}{8}
\setcounter{r@tfl@t}{4}
\setcounter{defn}{19}
\setcounter{lstlisting}{0}
\setcounter{section@level}{0}
}
