\relax 
\providecommand\hyper@newdestlabel[2]{}
\@writefile{toc}{\setcounter {tocdepth}{2}}
\@writefile{toc}{\contentsline {chapter}{\numberline {6}\MakeUppercase  {Review of Literate}}{72}{chapter.384}}
\@setckpt{branty-chapter6}{
\setcounter{page}{73}
\setcounter{equation}{27}
\setcounter{enumi}{2}
\setcounter{enumii}{0}
\setcounter{enumiii}{0}
\setcounter{enumiv}{0}
\setcounter{footnote}{0}
\setcounter{mpfootnote}{0}
\setcounter{part}{0}
\setcounter{chapter}{6}
\setcounter{section}{0}
\setcounter{subsection}{0}
\setcounter{subsubsection}{2}
\setcounter{paragraph}{0}
\setcounter{subparagraph}{0}
\setcounter{figure}{25}
\setcounter{table}{2}
\setcounter{signatures}{0}
\setcounter{cnt@Lsig}{0}
\setcounter{cnt@Rsig}{0}
\setcounter{parentequation}{0}
\setcounter{LT@tables}{0}
\setcounter{LT@chunks}{0}
\setcounter{subfigure}{0}
\setcounter{lofdepth}{1}
\setcounter{subtable}{0}
\setcounter{lotdepth}{1}
\setcounter{lstnumber}{34}
\setcounter{Item}{29}
\setcounter{Hfootnote}{31}
\setcounter{bookmark@seq@number}{69}
\setcounter{float@type}{8}
\setcounter{r@tfl@t}{4}
\setcounter{defn}{19}
\setcounter{lstlisting}{0}
\setcounter{section@level}{0}
}
