\relax 
\providecommand\hyper@newdestlabel[2]{}
\citation{Doe:2014:Online}
\citation{AlecGo}
\citation{Pak10}
\citation{fromtweetstopolls}
\@writefile{toc}{\setcounter {tocdepth}{2}}
\@writefile{toc}{\contentsline {chapter}{\numberline {2}\MakeUppercase  {Theoretical Framework}}{3}{chapter.26}}
\@writefile{toc}{\contentsline {section}{\numberline {2.1}Twitter Service}{3}{section.27}}
\newlabel{sec:Twitter Service}{{2.1}{3}{Twitter Service}{section.27}{}}
\gls@page{default::virality}{3}
\@writefile{brf}{\backcite{Doe:2014:Online}{{3}{2.1}{section.27}}}
\@writefile{brf}{\backcite{AlecGo}{{3}{2.1}{section.27}}}
\@writefile{brf}{\backcite{Pak10}{{3}{2.1}{section.27}}}
\@writefile{brf}{\backcite{fromtweetstopolls}{{3}{2.1}{section.27}}}
\gls@page{losa::API}{3}
\@writefile{toc}{\contentsline {subsection}{\numberline {2.1.1}History}{4}{subsection.28}}
\citation{mitchell2010machine}
\@writefile{toc}{\contentsline {subsection}{\numberline {2.1.2}Twitter Components}{6}{subsection.29}}
\@writefile{toc}{\contentsline {section}{\numberline {2.2}Machine Learning}{7}{section.30}}
\@writefile{brf}{\backcite{mitchell2010machine}{{7}{2.2}{section.30}}}
\@writefile{lof}{\contentsline {figure}{\numberline {1}{\ignorespaces Supervised learning model}}{8}{figure.34}}
\newlabel{fig:supervisedlearning}{{1}{8}{Supervised learning model}{figure.34}{}}
\gls@page{losa::SVM}{8}
\citation{Dayan99unsupervisedlearning}
\citation{poms}
\@writefile{lof}{\contentsline {figure}{\numberline {2}{\ignorespaces The SVM representation}}{9}{figure.36}}
\newlabel{fig:svm}{{2}{9}{The SVM representation}{figure.36}{}}
\@writefile{brf}{\backcite{Dayan99unsupervisedlearning}{{9}{2.2}{figure.36}}}
\@writefile{toc}{\contentsline {subsection}{\numberline {2.2.1}Sentiment Analysis}{9}{subsection.37}}
\citation{discovering_consumer_insight}
\citation{mudinaszhang}
\citation{pak2010twitter}
\citation{gonzalez2011identifying}
\citation{fromtweetstopolls}
\@writefile{brf}{\backcite{poms}{{10}{2.2.1}{subsection.37}}}
\@writefile{brf}{\backcite{discovering_consumer_insight}{{10}{2.2.1}{subsection.37}}}
\@writefile{brf}{\backcite{mudinaszhang}{{10}{2.2.1}{subsection.37}}}
\@writefile{brf}{\backcite{pak2010twitter}{{10}{2.2.1}{subsection.37}}}
\@writefile{brf}{\backcite{gonzalez2011identifying}{{10}{2.2.1}{subsection.37}}}
\@writefile{brf}{\backcite{fromtweetstopolls}{{10}{2.2.1}{subsection.37}}}
\@writefile{toc}{\contentsline {subsection}{\numberline {2.2.2}Preprocessing}{11}{subsection.38}}
\gls@page{losa::TF/IDF}{11}
\@writefile{toc}{\contentsline {section}{\numberline {2.3}Multi Criteria Decision Analysis}{13}{section.43}}
\newlabel{sec:Multi Criteria Decision Analysis}{{2.3}{13}{Multi Criteria Decision Analysis}{section.43}{}}
\citation{Trianbook1}
\citation{Trianbook2}
\citation{roy1book85}
\@writefile{toc}{\contentsline {subsection}{\numberline {2.3.1}Introduction to Multiple Criteria Decision Analysis - \losa@gloss@i {MCDA}}{14}{subsection.44}}
\@writefile{brf}{\backcite{Trianbook1}{{14}{2.3.1}{subsection.44}}}
\@writefile{brf}{\backcite{Trianbook2}{{14}{2.3.1}{subsection.44}}}
\@writefile{brf}{\backcite{roy1book85}{{14}{2.3.1}{subsection.44}}}
\citation{Zopounidis}
\@writefile{brf}{\backcite{Zopounidis}{{15}{2.3.1}{subsection.44}}}
\citation{Zim91}
\@writefile{lot}{\contentsline {table}{\numberline {1}{\ignorespaces Decision Matrix}}{16}{table.47}}
\newlabel{tab:Decision Matrix}{{1}{16}{Decision Matrix}{table.47}{}}
\@writefile{brf}{\backcite{Zim91}{{16}{2.3.1}{subsection.44}}}
\citation{hwang1981multiple}
\citation{Kim}
\citation{Olson}
\citation{Kim}
\gls@page{losa::TOPSIS}{17}
\@writefile{toc}{\contentsline {subsection}{\numberline {2.3.2}TOPSIS - Description of used MCDA method}{17}{subsection.54}}
\@writefile{brf}{\backcite{hwang1981multiple}{{17}{2.3.2}{subsection.54}}}
\@writefile{brf}{\backcite{Kim}{{17}{2.3.2}{subsection.54}}}
\@writefile{brf}{\backcite{Olson}{{17}{2.3.2}{subsection.54}}}
\citation{Chau}
\citation{Janic}
\citation{Feng}
\citation{Krohling}
\citation{Deng}
\citation{Wang2007870}
\citation{Dagdeviren20098143}
\citation{ghorbani2011using}
\@writefile{brf}{\backcite{Kim}{{18}{1}{Item.55}}}
\@writefile{brf}{\backcite{Chau}{{18}{2}{Item.56}}}
\@writefile{brf}{\backcite{Janic}{{18}{1}{Item.57}}}
\@writefile{brf}{\backcite{Feng}{{18}{2}{Item.58}}}
\@writefile{brf}{\backcite{Krohling}{{18}{2.3.2}{Item.58}}}
\@writefile{brf}{\backcite{Deng}{{18}{2.3.2}{Item.58}}}
\@writefile{brf}{\backcite{Wang2007870}{{18}{2.3.2}{Item.58}}}
\@writefile{brf}{\backcite{Dagdeviren20098143}{{18}{2.3.2}{Item.58}}}
\@writefile{brf}{\backcite{ghorbani2011using}{{18}{2.3.2}{Item.58}}}
\@writefile{toc}{\contentsline {subsubsection}{\numberline {2.3.2.1}TOPSIS Algorithm}{18}{subsubsection.59}}
\newlabel{subsubsec:TOPSIS Algorithm}{{2.3.2.1}{18}{TOPSIS Algorithm}{subsubsection.59}{}}
\newlabel{eq:eq1}{{4}{19}{TOPSIS Algorithm}{equation.63}{}}
\newlabel{eq:eq2}{{5}{19}{TOPSIS Algorithm}{equation.65}{}}
\newlabel{eq:eq3}{{6}{19}{TOPSIS Algorithm}{equation.66}{}}
\newlabel{eq:eq4}{{7}{19}{TOPSIS Algorithm}{equation.68}{}}
\newlabel{eq:eq5}{{8}{19}{TOPSIS Algorithm}{equation.69}{}}
\newlabel{eq:eq6}{{9}{19}{TOPSIS Algorithm}{equation.71}{}}
\newlabel{eq:eq7}{{10}{19}{TOPSIS Algorithm}{equation.72}{}}
\newlabel{eq:eq8}{{11}{20}{TOPSIS Algorithm}{equation.74}{}}
\@writefile{toc}{\contentsline {section}{\numberline {2.4}Promotional strategies}{20}{section.75}}
\@setckpt{branty-chapter2}{
\setcounter{page}{21}
\setcounter{equation}{11}
\setcounter{enumi}{6}
\setcounter{enumii}{0}
\setcounter{enumiii}{0}
\setcounter{enumiv}{0}
\setcounter{footnote}{9}
\setcounter{mpfootnote}{0}
\setcounter{part}{0}
\setcounter{chapter}{2}
\setcounter{section}{4}
\setcounter{subsection}{0}
\setcounter{subsubsection}{1}
\setcounter{paragraph}{0}
\setcounter{subparagraph}{0}
\setcounter{figure}{2}
\setcounter{table}{1}
\setcounter{signatures}{0}
\setcounter{cnt@Lsig}{0}
\setcounter{cnt@Rsig}{0}
\setcounter{parentequation}{0}
\setcounter{LT@tables}{0}
\setcounter{LT@chunks}{0}
\setcounter{subfigure}{0}
\setcounter{lofdepth}{1}
\setcounter{subtable}{0}
\setcounter{lotdepth}{1}
\setcounter{lstnumber}{1}
\setcounter{Item}{12}
\setcounter{Hfootnote}{9}
\setcounter{bookmark@seq@number}{27}
\setcounter{float@type}{8}
\setcounter{r@tfl@t}{0}
\setcounter{defn}{2}
\setcounter{lstlisting}{0}
\setcounter{section@level}{0}
}
