\relax 
\providecommand\hyper@newdestlabel[2]{}
\@writefile{toc}{\setcounter {tocdepth}{2}}
\@writefile{toc}{\contentsline {chapter}{\numberline {1}\MakeUppercase  {Introduction}}{1}{chapter.18}}
\@writefile{toc}{\contentsline {section}{\numberline {1.1}Problem definition}{1}{section.19}}
\@writefile{toc}{\contentsline {section}{\numberline {1.2}Motivation of this thesis}{1}{section.20}}
\@writefile{toc}{\contentsline {section}{\numberline {1.3}Objective of this thesis}{2}{section.21}}
\@writefile{toc}{\contentsline {section}{\numberline {1.4}Structure of this thesis}{2}{section.24}}
\@writefile{toc}{\contentsline {section}{\numberline {1.5}Contribution of this thesis}{2}{section.25}}
\@setckpt{branty-chapter1}{
\setcounter{page}{3}
\setcounter{equation}{0}
\setcounter{enumi}{2}
\setcounter{enumii}{0}
\setcounter{enumiii}{0}
\setcounter{enumiv}{0}
\setcounter{footnote}{0}
\setcounter{mpfootnote}{0}
\setcounter{part}{0}
\setcounter{chapter}{1}
\setcounter{section}{5}
\setcounter{subsection}{0}
\setcounter{subsubsection}{0}
\setcounter{paragraph}{0}
\setcounter{subparagraph}{0}
\setcounter{figure}{0}
\setcounter{table}{0}
\setcounter{signatures}{0}
\setcounter{cnt@Lsig}{0}
\setcounter{cnt@Rsig}{0}
\setcounter{parentequation}{0}
\setcounter{LT@tables}{0}
\setcounter{LT@chunks}{0}
\setcounter{subfigure}{0}
\setcounter{lofdepth}{1}
\setcounter{subtable}{0}
\setcounter{lotdepth}{1}
\setcounter{lstnumber}{1}
\setcounter{Item}{2}
\setcounter{Hfootnote}{0}
\setcounter{bookmark@seq@number}{15}
\setcounter{float@type}{8}
\setcounter{r@tfl@t}{0}
\setcounter{defn}{0}
\setcounter{lstlisting}{0}
\setcounter{section@level}{0}
}
