\relax 
\providecommand\hyper@newdestlabel[2]{}
\providecommand\HyperFirstAtBeginDocument{\AtBeginDocument}
\HyperFirstAtBeginDocument{\ifx\hyper@anchor\@undefined
\global\let\oldcontentsline\contentsline
\gdef\contentsline#1#2#3#4{\oldcontentsline{#1}{#2}{#3}}
\global\let\oldnewlabel\newlabel
\gdef\newlabel#1#2{\newlabelxx{#1}#2}
\gdef\newlabelxx#1#2#3#4#5#6{\oldnewlabel{#1}{{#2}{#3}}}
\AtEndDocument{\ifx\hyper@anchor\@undefined
\let\contentsline\oldcontentsline
\let\newlabel\oldnewlabel
\fi}
\fi}
\global\let\hyper@last\relax 
\gdef\HyperFirstAtBeginDocument#1{#1}
\providecommand\HyField@AuxAddToFields[1]{}
\providecommand\HyField@AuxAddToCoFields[2]{}
\@input{branty-front-page.aux}
\bibstyle{gatech-thesis}
\@input{branty-quote.aux}
\@input{branty-acknowledgements.aux}
\@writefile{toc}{\setcounter {tocdepth}{2}}
\gls@page{losa::MCDA}{v}
\gls@page{losa::WEKA}{v}
\@writefile{toc}{\contentsline {chapter}{\MakeUppercase  {List of Tables} }{viii}{section*.6}}
\@writefile{toc}{\setcounter {tocdepth}{2}}
\@writefile{toc}{\contentsline {chapter}{\MakeUppercase  {List of Figures} }{ix}{section*.8}}
\@writefile{toc}{\setcounter {tocdepth}{2}}
\gls@cite{losa::API}{API}{API}{}
\gls@cite{losa::BSON}{BSON}{BSON}{}
\gls@cite{losa::CSS}{CSS}{CSS}{}
\gls@cite{losa::DOM}{DOM}{DOM}{}
\gls@cite{losa::GNU}{GNU}{GNU}{}
\gls@cite{losa::HTML}{HTML}{HTML}{}
\gls@cite{losa::MCDA}{MCDA}{MCDA}{}
\gls@cite{losa::MVC}{MVC}{MVC}{}
\gls@cite{losa::SVM}{SVM}{SVM}{}
\gls@cite{losa::TF/IDF}{TF/IDF}{TF/IDF}{}
\gls@cite{losa::TOPSIS}{TOPSIS}{TOPSIS}{}
\gls@cite{losa::URL}{URL}{URL}{}
\gls@cite{losa::WEKA}{WEKA}{WEKA}{}
\@writefile{toc}{\contentsline {chapter}{\MakeUppercase  {List of Symbols or Abbreviations} }{xi}{section*.10}}
\@writefile{toc}{\setcounter {tocdepth}{2}}
\gls@cite{default::BSON}{BSON}{BSON}{}
\gls@cite{default::MVC}{MVC}{MVC}{}
\gls@cite{default::virality}{virality}{Virality}{}
\@writefile{toc}{\contentsline {chapter}{\MakeUppercase  {Glossary} }{xii}{section*.12}}
\@writefile{toc}{\setcounter {tocdepth}{2}}
\@writefile{toc}{\contentsline {chapter}{\MakeUppercase  {List of Listings} }{xiii}{section*.14}}
\@writefile{toc}{\setcounter {tocdepth}{2}}
\@input{branty-abstract.aux}
\@input{branty-chapter1.aux}
\@writefile{toc}{\orig@contentsline {part}{CHAPTERS}{}}
\@input{branty-chapter2.aux}
\@input{branty-chapter3.aux}
\@input{branty-chapter4.aux}
\@input{branty-chapter5.aux}
\@input{branty-chapter6.aux}
\@input{branty-chapter7.aux}
\@input{branty-chapter8.aux}
\@input{branty-appendixA.aux}
\@writefile{toc}{\orig@contentsline {part}{APPENDICES}{}}
\@writefile{toc}{\setcounter {tocdepth}{0}}
\bibdata{branty-bib}
\bibcite{mongoDB}{1}
\bibcite{twitter4j}{2}
\bibcite{fromtweetstopolls}{3}
\bibcite{poms}{4}
\bibcite{discovering_consumer_insight}{5}
\bibcite{Chau}{6}
\bibcite{Dagdeviren20098143}{7}
\bibcite{Dayan99unsupervisedlearning}{8}
\bibcite{Deng}{9}
\bibcite{Feng}{10}
\bibcite{ghorbani2011using}{11}
\bibcite{AlecGo}{12}
\bibcite{gonzalez2011identifying}{13}
\@writefile{toc}{\contentsline {chapter}{\MakeUppercase  {References}}{80}{section*.605}}
\@writefile{toc}{\setcounter {tocdepth}{0}}
\bibcite{hwang1981multiple}{14}
\bibcite{Janic}{15}
\bibcite{Kim}{16}
\bibcite{Krohling}{17}
\bibcite{mitchell2010machine}{18}
\bibcite{mudinaszhang}{19}
\bibcite{Olson}{20}
\bibcite{pak2010twitter}{21}
\bibcite{Pak10}{22}
\bibcite{roy1book85}{23}
\bibcite{ReverseEngineeredKloutScore}{24}
\bibcite{Doe:2014:Online}{25}
\bibcite{Trianbook1}{26}
\bibcite{twitterObjects}{27}
\bibcite{Wang2007870}{28}
\bibcite{Trianbook2}{29}
\bibcite{yoon1995multiple}{30}
\bibcite{Zim91}{31}
\bibcite{Zopounidis}{32}
\@writefile{toc}{\setcounter{tocdepth}{3}}
\newlabel{LastPage}{{}{82}{}{}{}}
