\relax 
\providecommand\hyper@newdestlabel[2]{}
\@writefile{toc}{\setcounter {tocdepth}{2}}
\@writefile{toc}{\contentsline {chapter}{\numberline {8}\MakeUppercase  {Limitations and Future Work}}{74}{chapter.386}}
\@writefile{toc}{\contentsline {section}{\numberline {8.1}MongoDB Limitations}{74}{section.387}}
\@writefile{toc}{\contentsline {section}{\numberline {8.2}Twitter API limitations}{74}{section.388}}
\@setckpt{branty-chapter8}{
\setcounter{page}{76}
\setcounter{equation}{27}
\setcounter{enumi}{2}
\setcounter{enumii}{0}
\setcounter{enumiii}{0}
\setcounter{enumiv}{0}
\setcounter{footnote}{0}
\setcounter{mpfootnote}{0}
\setcounter{part}{0}
\setcounter{chapter}{8}
\setcounter{section}{2}
\setcounter{subsection}{0}
\setcounter{subsubsection}{2}
\setcounter{paragraph}{0}
\setcounter{subparagraph}{0}
\setcounter{figure}{25}
\setcounter{table}{2}
\setcounter{signatures}{0}
\setcounter{cnt@Lsig}{0}
\setcounter{cnt@Rsig}{0}
\setcounter{parentequation}{0}
\setcounter{LT@tables}{0}
\setcounter{LT@chunks}{0}
\setcounter{subfigure}{0}
\setcounter{lofdepth}{1}
\setcounter{subtable}{0}
\setcounter{lotdepth}{1}
\setcounter{lstnumber}{34}
\setcounter{Item}{29}
\setcounter{Hfootnote}{31}
\setcounter{bookmark@seq@number}{73}
\setcounter{float@type}{8}
\setcounter{r@tfl@t}{4}
\setcounter{defn}{19}
\setcounter{lstlisting}{0}
\setcounter{section@level}{0}
}
