\relax 
\providecommand\hyper@newdestlabel[2]{}
\@writefile{toc}{\setcounter {tocdepth}{2}}
\@writefile{toc}{\contentsline {chapter}{\numberline {4}\MakeUppercase  {Implementation}}{30}{chapter.104}}
\@writefile{toc}{\contentsline {section}{\numberline {4.1}Building a social based brand ranking framework}{30}{section.105}}
\citation{twitterObjects}
\@writefile{toc}{\contentsline {subsection}{\numberline {4.1.1}Defining a brand page}{31}{subsection.106}}
\newlabel{subsection:Defining a brand page}{{4.1.1}{31}{Defining a brand page}{subsection.106}{}}
\@writefile{brf}{\backcite{twitterObjects}{{31}{3}{defn.107}}}
\@writefile{toc}{\contentsline {subsection}{\numberline {4.1.2}Defining Features}{31}{subsection.108}}
\newlabel{subsec:Defining Features}{{4.1.2}{31}{Defining Features}{subsection.108}{}}
\newlabel{eq:eq4.1}{{12}{31}{}{equation.110}{}}
\newlabel{eq:eq4.2}{{13}{31}{}{equation.111}{}}
\newlabel{eq:eq4.3}{{14}{32}{}{equation.112}{}}
\newlabel{eq:eq4.4}{{15}{32}{}{equation.114}{}}
\newlabel{eq:eq4.4}{{16}{32}{}{equation.116}{}}
\newlabel{eq:eq4.5}{{17}{32}{}{equation.118}{}}
\newlabel{defn:8}{{8}{32}{}{defn.119}{}}
\newlabel{eq:eq4.6}{{18}{32}{}{equation.120}{}}
\gls@page{losa::URL}{32}
\newlabel{eq:eq4.7}{{19}{33}{}{equation.122}{}}
\newlabel{eq:eq4.8}{{20}{33}{}{equation.124}{}}
\newlabel{eq:eq4.9}{{21}{33}{}{equation.126}{}}
\newlabel{eq:eq4.10}{{22}{33}{}{equation.128}{}}
\newlabel{eq:eq4.11}{{23}{33}{}{equation.131}{}}
\newlabel{eq:eq4.12}{{24}{33}{}{equation.133}{}}
\newlabel{eq:eq4.13}{{25}{34}{}{equation.135}{}}
\newlabel{eq:eq4.14}{{26}{34}{}{equation.137}{}}
\newlabel{eq:eq4.15}{{27}{34}{}{equation.139}{}}
\@writefile{toc}{\contentsline {subsection}{\numberline {4.1.3}Architecture}{34}{subsection.141}}
\@writefile{toc}{\contentsline {subsubsection}{\numberline {4.1.3.1}Application level}{34}{subsubsection.144}}
\newlabel{RF1}{35}
\@writefile{lof}{\contentsline {figure}{\numberline {5}{\ignorespaces Framework architecture}}{35}{figure.143}}
\newlabel{fig:architecture}{{5}{35}{Framework architecture}{figure.143}{}}
\@writefile{toc}{\contentsline {subsubsection}{\numberline {4.1.3.2}Presentation level}{36}{subsubsection.145}}
\newlabel{subsubsec:Presentation level}{{4.1.3.2}{36}{Presentation level}{subsubsection.145}{}}
\@writefile{toc}{\contentsline {subsection}{\numberline {4.1.4}Database Model}{36}{subsection.147}}
\newlabel{subsec:Database Model}{{4.1.4}{36}{Database Model}{subsection.147}{}}
\@writefile{toc}{\contentsline {subsubsection}{\numberline {4.1.4.1}Brand Collection}{36}{subsubsection.148}}
\newlabel{RF2}{38}
\@writefile{lof}{\contentsline {figure}{\numberline {6}{\ignorespaces Representation of a document in Brand Collection}}{38}{figure.150}}
\newlabel{fig:brand}{{6}{38}{Representation of a document in Brand Collection}{figure.150}{}}
\newlabel{RF3}{39}
\@writefile{lof}{\contentsline {figure}{\numberline {7}{\ignorespaces Representation of a tweet}}{39}{figure.152}}
\newlabel{fig:tweets}{{7}{39}{Representation of a tweet}{figure.152}{}}
\@writefile{toc}{\contentsline {subsubsection}{\numberline {4.1.4.2}Features Collection}{40}{subsubsection.153}}
\newlabel{RF4}{42}
\@writefile{lof}{\contentsline {figure}{\numberline {8}{\ignorespaces Representation of a document in Features Collection.}}{42}{figure.155}}
\newlabel{fig:brandOnfeatures}{{8}{42}{Representation of a document in Features Collection}{figure.155}{}}
\@writefile{lof}{\contentsline {figure}{\numberline {9}{\ignorespaces Representation of the content of features array}}{43}{figure.157}}
\newlabel{fig:features}{{9}{43}{Representation of the content of features array}{figure.157}{}}
\@writefile{lof}{\contentsline {figure}{\numberline {10}{\ignorespaces Representation of the content of rates array}}{43}{figure.159}}
\newlabel{fig:rates}{{10}{43}{Representation of the content of rates array}{figure.159}{}}
\@writefile{lof}{\contentsline {figure}{\numberline {11}{\ignorespaces Representation of Features Configuration in Configurations Collection}}{44}{figure.161}}
\newlabel{fig:features_config}{{11}{44}{Representation of Features Configuration in Configurations Collection}{figure.161}{}}
\@writefile{toc}{\contentsline {section}{\numberline {4.2}Implementation}{44}{section.164}}
\@writefile{toc}{\contentsline {subsection}{\numberline {4.2.1}Brand Data Collection}{44}{subsection.165}}
\@writefile{lof}{\contentsline {figure}{\numberline {12}{\ignorespaces Representation of Trending Configuration in Configurations Collection}}{45}{figure.163}}
\newlabel{fig:trend}{{12}{45}{Representation of Trending Configuration in Configurations Collection}{figure.163}{}}
\gls@page{losa::HTML}{46}
\gls@page{losa::DOM}{46}
\gls@page{losa::CSS}{46}
\newlabel{lst:parser.java}{{1}{46}{jsoup Java HTML Parser}{lstlisting.170}{}}
\@writefile{lol}{\contentsline {lstlisting}{\numberline {1}jsoup Java HTML Parser}{46}{lstlisting.170}}
\newlabel{lst:nike.java}{{2}{47}{Nike profile names BSON example}{lstlisting.207}{}}
\@writefile{lol}{\contentsline {lstlisting}{\numberline {2}Nike profile names BSON example}{47}{lstlisting.207}}
\@writefile{toc}{\contentsline {subsection}{\numberline {4.2.2}Training Set}{47}{subsection.232}}
\@writefile{lof}{\contentsline {figure}{\numberline {13}{\ignorespaces Annotation of tweets for the training set.}}{48}{figure.237}}
\newlabel{fig:mlannotation1}{{13}{48}{Annotation of tweets for the training set}{figure.237}{}}
\@writefile{toc}{\contentsline {subsection}{\numberline {4.2.3}Twitter Project}{48}{subsection.240}}
\@writefile{lof}{\contentsline {figure}{\numberline {14}{\ignorespaces Annotation of tweets for the training set.}}{49}{figure.239}}
\newlabel{fig:mlannotation2}{{14}{49}{Annotation of tweets for the training set}{figure.239}{}}
\@writefile{toc}{\contentsline {subsubsection}{\numberline {4.2.3.1}Branty.java}{49}{subsubsection.241}}
\@writefile{toc}{\contentsline {subsubsection}{\numberline {4.2.3.2}FrequentWordsFeature.java}{50}{subsubsection.242}}
\@writefile{toc}{\contentsline {subsubsection}{\numberline {4.2.3.3}KloutAPI.java}{50}{subsubsection.243}}
\@writefile{toc}{\contentsline {subsubsection}{\numberline {4.2.3.4}MLAnnotator.java}{51}{subsubsection.246}}
\@writefile{toc}{\contentsline {subsubsection}{\numberline {4.2.3.5}MongoDB.java}{51}{subsubsection.247}}
\@writefile{toc}{\contentsline {subsubsection}{\numberline {4.2.3.6}SWN3.java}{52}{subsubsection.248}}
\@writefile{toc}{\contentsline {subsubsection}{\numberline {4.2.3.7}WEKA.java}{52}{subsubsection.253}}
\@writefile{toc}{\contentsline {subsection}{\numberline {4.2.4}Feature Extraction Project}{53}{subsection.259}}
\@writefile{toc}{\contentsline {subsection}{\numberline {4.2.5}Web Application}{55}{subsection.262}}
\newlabel{subsec:Web Application}{{4.2.5}{55}{Web Application}{subsection.262}{}}
\@writefile{toc}{\contentsline {subsubsection}{\numberline {4.2.5.1}Front end}{55}{subsubsection.263}}
\newlabel{subsubsec:Front end}{{4.2.5.1}{55}{Front end}{subsubsection.263}{}}
\@writefile{lof}{\contentsline {figure}{\numberline {15}{\ignorespaces Home page of the web application}}{56}{figure.268}}
\newlabel{fig:frontpage}{{15}{56}{Home page of the web application}{figure.268}{}}
\@writefile{lof}{\contentsline {figure}{\numberline {16}{\ignorespaces Main page of the web application}}{57}{figure.270}}
\newlabel{fig:features_page}{{16}{57}{Main page of the web application}{figure.270}{}}
\@writefile{lof}{\contentsline {figure}{\numberline {17}{\ignorespaces List of brands in descending order}}{58}{figure.287}}
\newlabel{fig:list}{{17}{58}{List of brands in descending order}{figure.287}{}}
\newlabel{lst:ajaxbrands.java}{{3}{58}{Ajax request for TOPSIS ranking algorithm}{lstlisting.271}{}}
\@writefile{lol}{\contentsline {lstlisting}{\numberline {3}Ajax request for TOPSIS ranking algorithm}{58}{lstlisting.271}}
\@writefile{lof}{\contentsline {figure}{\numberline {18}{\ignorespaces List of brands in ascending order}}{59}{figure.289}}
\newlabel{fig:ascending}{{18}{59}{List of brands in ascending order}{figure.289}{}}
\@writefile{lof}{\contentsline {figure}{\numberline {19}{\ignorespaces List of brands of Technology category}}{60}{figure.291}}
\newlabel{fig:tech}{{19}{60}{List of brands of Technology category}{figure.291}{}}
\@writefile{lof}{\contentsline {figure}{\numberline {20}{\ignorespaces List of brands of Fashion category}}{60}{figure.293}}
\newlabel{fig:fashion}{{20}{60}{List of brands of Fashion category}{figure.293}{}}
\@writefile{lof}{\contentsline {figure}{\numberline {21}{\ignorespaces List of brands of Auto category}}{61}{figure.295}}
\newlabel{fig:auto}{{21}{61}{List of brands of Auto category}{figure.295}{}}
\@writefile{lof}{\contentsline {figure}{\numberline {22}{\ignorespaces List of brands of Food/Beverages category}}{61}{figure.297}}
\newlabel{fig:beverages}{{22}{61}{List of brands of Food/Beverages category}{figure.297}{}}
\@writefile{lof}{\contentsline {figure}{\numberline {23}{\ignorespaces Results based on hash-tag \#apple search on Twitter}}{62}{figure.299}}
\newlabel{fig:apple}{{23}{62}{Results based on hash-tag \#apple search on Twitter}{figure.299}{}}
\newlabel{lst:trend.java}{{4}{62}{Ajax request for retrieving hash-tags}{lstlisting.300}{}}
\@writefile{lol}{\contentsline {lstlisting}{\numberline {4}Ajax request for retrieving hash-tags}{62}{lstlisting.300}}
\@writefile{lof}{\contentsline {figure}{\numberline {24}{\ignorespaces Banner with sliders one for each feature}}{63}{figure.337}}
\newlabel{fig:slider}{{24}{63}{Banner with sliders one for each feature}{figure.337}{}}
\newlabel{lst:weights.java}{{5}{63}{Weights normalization}{lstlisting.325}{}}
\@writefile{lol}{\contentsline {lstlisting}{\numberline {5}Weights normalization}{63}{lstlisting.325}}
\@writefile{lof}{\contentsline {figure}{\numberline {25}{\ignorespaces More statistical values for a brands}}{64}{figure.339}}
\newlabel{fig:slider}{{25}{64}{More statistical values for a brands}{figure.339}{}}
\newlabel{lst:stats.java}{{6}{64}{One brands records retrieval}{lstlisting.340}{}}
\@writefile{lol}{\contentsline {lstlisting}{\numberline {6}One brands records retrieval}{64}{lstlisting.340}}
\citation{Kim}
\citation{Olson}
\citation{yoon1995multiple}
\@writefile{toc}{\contentsline {subsubsection}{\numberline {4.2.5.2}Back-end}{65}{subsubsection.374}}
\newlabel{subsubsec:Back end}{{4.2.5.2}{65}{Back-end}{subsubsection.374}{}}
\gls@page{losa::MVC}{65}
\gls@page{default::MVC}{65}
\@writefile{brf}{\backcite{Kim}{{66}{4.2.5.2}{subsubsection.374}}}
\@writefile{brf}{\backcite{Olson}{{66}{4.2.5.2}{subsubsection.374}}}
\@writefile{brf}{\backcite{yoon1995multiple}{{66}{4.2.5.2}{subsubsection.374}}}
\@writefile{lot}{\contentsline {table}{\numberline {2}{\ignorespaces Pirelli features example}}{67}{table.378}}
\newlabel{tab:Pirelli features example}{{2}{67}{Pirelli features example}{table.378}{}}
\@setckpt{branty-chapter4}{
\setcounter{page}{71}
\setcounter{equation}{27}
\setcounter{enumi}{2}
\setcounter{enumii}{0}
\setcounter{enumiii}{0}
\setcounter{enumiv}{0}
\setcounter{footnote}{11}
\setcounter{mpfootnote}{0}
\setcounter{part}{0}
\setcounter{chapter}{4}
\setcounter{section}{2}
\setcounter{subsection}{5}
\setcounter{subsubsection}{2}
\setcounter{paragraph}{0}
\setcounter{subparagraph}{0}
\setcounter{figure}{25}
\setcounter{table}{2}
\setcounter{signatures}{0}
\setcounter{cnt@Lsig}{0}
\setcounter{cnt@Rsig}{0}
\setcounter{parentequation}{0}
\setcounter{LT@tables}{0}
\setcounter{LT@chunks}{0}
\setcounter{subfigure}{0}
\setcounter{lofdepth}{1}
\setcounter{subtable}{0}
\setcounter{lotdepth}{1}
\setcounter{lstnumber}{34}
\setcounter{Item}{29}
\setcounter{Hfootnote}{31}
\setcounter{bookmark@seq@number}{65}
\setcounter{float@type}{8}
\setcounter{r@tfl@t}{4}
\setcounter{defn}{19}
\setcounter{lstlisting}{6}
\setcounter{section@level}{0}
}
